{
  "Title": "Публичная оферта о комитете кредиторов на Витрине",
  "BigTitle": "ПУБЛИЧНАЯ ОФЕРТА (ПРЕДЛОЖЕНИЕ) НА ЗАКЛЮЧЕНИЕ СОГЛАШЕНИЯ О ВЗАИМОДЕЙСТВИИ ПРИ ИСПОЛЬЗОВАНИИ ИНФОРМАЦИОННОЙ СИСТЕМЫ «ВИТРИНА ДАННЫХ ПАУ» ДЛЯ ПРОВЕДЕНИЯ ЗАСЕДАНИЙ КОМИТЕТА КРЕДИТОРОВ.",
  "versions": [
    {
      "Version": 1,
      "FileName": "PublicOfferShowcaseCreditorsCommittee.pdf",
      "Size": 92063,
      "Md5": "c866f6dddce4c7e157b2ce4a2b097dea",
      "Data": "24.08.2020"
    }
  ]
}